25	200	1
0	711	1834	0	0	7897	0	0	0
1	558	558	20	465	474	90	0	8
2	123	258	20	653	689	90	0	4
3	974	950	20	1041	1062	90	0	10
4	1193	1320	-20	1328	1363	90	2	0
5	82	72	20	1939	1950	90	0	6
6	1564	836	-20	2506	2510	90	5	0
7	1368	771	20	2634	2663	90	0	9
8	1462	335	-20	2861	2874	90	1	0
9	1267	745	-20	3041	3073	90	7	0
10	425	554	-20	3432	3447	90	3	0
11	265	582	20	415	434	90	0	17
12	842	1759	20	844	859	90	0	16
13	585	877	20	1190	1216	90	0	18
14	260	181	20	1478	1514	90	0	15
15	1236	1820	-20	2092	2106	90	14	0
16	256	898	-20	2584	2619	90	12	0
17	11	1263	-20	2834	2873	90	11	0
18	1356	827	-20	3344	3372	90	13	0
19	485	1023	20	3665	3703	90	0	20
20	953	1544	-20	4019	4022	90	19	0
21	483	661	20	414	421	90	0	25
22	688	375	20	615	617	90	0	28
23	50	207	20	863	884	90	0	24
24	283	1024	-20	1238	1246	90	23	0
25	1387	1001	-20	1617	1645	90	21	0
26	779	1505	20	1919	1933	90	0	30
27	35	531	20	2378	2379	90	0	29
28	325	345	-20	2621	2657	90	22	0
29	1174	11	-20	2969	2991	90	27	0
30	1094	1861	-20	3533	3568	90	26	0
31	495	1318	20	191	221	90	0	37
32	333	311	20	566	583	90	0	38
33	863	1268	20	990	1003	90	0	35
34	1563	927	20	1289	1297	90	0	40
35	951	2112	-20	1739	1768	90	33	0
36	1542	1396	20	2077	2098	90	0	39
37	352	243	-20	2657	2682	90	31	0
38	263	415	-20	2797	2808	90	32	0
39	1235	1056	-20	3231	3244	90	36	0
40	735	518	-20	3550	3583	90	34	0
41	164	1279	20	245	268	90	0	42
42	492	511	-20	584	593	90	41	0
43	656	103	20	802	814	90	0	48
44	1382	1765	20	1431	1443	90	0	49
45	740	1612	20	1717	1756	90	0	46
46	458	1927	-20	1972	2010	90	45	0
47	568	2301	20	2156	2165	90	0	50
48	1265	799	-20	2721	2739	90	43	0
49	447	1075	-20	3072	3086	90	44	0
50	1352	1961	-20	3519	3545	90	47	0
51	563	1532	20	183	194	90	0	54
52	736	843	20	479	503	90	0	60
53	840	877	20	578	612	90	0	57
54	221	666	-20	859	874	90	51	0
55	882	1855	20	1295	1321	90	0	56
56	62	464	-20	1829	1841	90	55	0
57	1635	842	-20	2343	2363	90	53	0
58	1141	75	20	2712	2729	90	0	59
59	1503	248	-20	2913	2916	90	58	0
60	329	804	-20	3406	3417	90	52	0
61	1098	167	20	515	535	90	0	63
62	1068	1792	20	1043	1076	90	0	69
63	938	1165	-20	1322	1355	90	61	0
64	1606	1709	20	1719	1721	90	0	68
65	451	284	20	2345	2350	90	0	66
66	111	998	-20	2651	2662	90	65	0
67	1582	1647	20	3278	3284	90	0	70
68	599	309	-20	3867	3900	90	64	0
69	105	1097	-20	4198	4205	90	62	0
70	213	291	-20	4510	4540	90	67	0
71	1599	876	20	466	471	90	0	80
72	1618	1364	20	685	720	90	0	78
73	427	449	20	1254	1267	90	0	77
74	461	1208	20	1559	1576	90	0	75
75	323	527	-20	1834	1860	90	74	0
76	429	936	20	2055	2071	90	0	79
77	66	126	-20	2418	2430	90	73	0
78	260	1543	-20	2925	2961	90	72	0
79	1490	890	-20	3414	3425	90	76	0
80	880	760	-20	3694	3716	90	71	0
81	951	413	20	409	417	90	0	83
82	924	586	20	546	574	90	0	87
83	879	189	-20	798	810	90	81	0
84	355	385	20	1017	1047	90	0	85
85	1279	1878	-20	1605	1609	90	84	0
86	241	2040	20	1966	2005	90	0	90
87	145	861	-20	2394	2423	90	82	0
88	601	456	20	2677	2693	90	0	89
89	7	813	-20	2964	2981	90	88	0
90	495	340	-20	3259	3288	90	86	0
91	602	376	20	434	435	90	0	103
92	31	32	20	680	696	90	0	107
93	91	330	20	843	882	90	0	109
94	190	365	20	947	977	90	0	101
95	22	1658	20	1472	1499	90	0	111
96	992	1463	20	1864	1894	90	0	102
97	1498	831	20	2207	2223	90	0	104
98	526	773	20	2573	2576	90	0	112
99	1370	902	20	2867	2901	90	0	105
100	324	656	20	3248	3274	90	0	106
101	234	221	-20	3503	3507	90	94	0
102	259	714	-20	3746	3770	90	96	0
103	542	384	-20	3953	3981	90	91	0
104	684	651	-20	4127	4135	90	97	0
105	899	1933	-20	4564	4584	90	99	0
106	272	955	-20	4972	4993	90	100	0
107	616	522	-20	5226	5255	90	92	0
108	458	604	20	5386	5387	90	0	110
109	1533	362	-20	5843	5856	90	93	0
110	1004	2192	-20	6460	6467	90	108	0
111	317	1484	-20	6789	6818	90	95	0
112	144	350	-20	7288	7323	90	98	0
