25	200	1
0	1267	745	0	0	3856	0	0	0
1	221	666	20	387	392	90	0	5
2	427	449	20	550	558	90	0	8
3	451	284	20	696	713	90	0	10
4	1193	1320	20	1203	1205	90	0	9
5	483	661	-20	1643	1645	90	1	0
6	283	1024	20	1859	1875	90	0	7
7	111	998	-20	2022	2037	90	6	0
8	1582	1647	-20	2633	2665	90	2	0
9	602	376	-20	3215	3240	90	4	0
10	863	1268	-20	3574	3600	90	3	0
11	656	103	20	349	379	90	0	13
12	263	415	20	612	622	90	0	16
13	779	1505	-20	1072	1100	90	11	0
14	880	760	20	1386	1415	90	0	17
15	1382	1765	20	1835	1846	90	0	20
16	11	1263	-20	2378	2401	90	12	0
17	105	1097	-20	2544	2562	90	14	0
18	447	1075	20	2749	2753	90	0	19
19	585	877	-20	2894	2910	90	18	0
20	1279	1878	-20	3342	3357	90	15	0
